\begin{thebibliography}{0}
\providecommand{\natexlab}[1]{#1}
\providecommand{\url}[1]{\texttt{#1}}
\providecommand{\urlprefix}{URL }
\expandafter\ifx\csname urlstyle\endcsname\relax
  \providecommand{\doi}[1]{doi:\discretionary{}{}{}#1}\else
  \providecommand{\doi}{doi:\discretionary{}{}{}\begingroup
  \urlstyle{rm}\Url}\fi
\providecommand{\eprint}[2][]{\url{#2}}

\end{thebibliography}
